%YAML 1.1
%TAG !u! tag:unity3d.com,2011:
--- !u!114 &11400000
MonoBehaviour:
  m_ObjectHideFlags: 0
  m_CorrespondingSourceObject: {fileID: 0}
  m_PrefabInternal: {fileID: 0}
  m_GameObject: {fileID: 0}
  m_Enabled: 1
  m_EditorHideFlags: 0
  m_Script: {fileID: 11500000, guid: 66d7288afe659f74db82530a26f80680, type: 3}
  m_Name: DoubleTree by Hilton
  m_EditorClassIdentifier: 
  id: 9
  establishmentName: DoubleTree by Hilton
  stars: 5
  hasPlaceTypeSpecification: 0
  description: "Zatrzymaj si\u0119 w DoubleTree by Hilton Hotel Wroc\u0142aw, nowym
    hotelu w sercu miasta. B\u0119d\u0105cy cz\u0119\u015Bci\u0105 kompleksu OVO Wroc\u0142aw
    hotel oferuje dost\u0119p do wielu lokalnych obiekt\xF3w, takich jak klub rekreacyjny,
    spa, kasyno i restauracje. \rRozkoszuj si\u0119 pobytem w nowoczesnym pokoju lub
    ciesz si\u0119 dodatkow\u0105 przestrzeni\u0105, wybieraj\u0105c apartament. Hotel
    oddaje do dyspozycji go\u015Bci \u015Bwiatowej klasy obiekty konferencyjne w samym
    centrum miasta. Sp\u0119d\u017A spokojne chwile w restauracji i barze Ovo na poziomie
    lobby, serwuj\u0105cych posi\u0142ki przez ca\u0142y dzie\u0144. "
  address:
    country: Poland
    city: "Wroc\u0142aw"
    street: Podwale
    number: 84
    hasPremiseNumber: 0
    premiseNumber: 0
  priceRange: 4
  latitude: 51.097015
  longitude: 17.022947
  websiteLink: http://www.hiltonhotels.com/pl_PL/polska/doubletree-by-hilton-hotel-wroclaw/
  phoneNumber: 71 777 00 00
  sprite: {fileID: 21300000, guid: 0365cba776897974dbef58508096068a, type: 3}
  workingHours: []
  placeTypeSpecification: 0
