%YAML 1.1
%TAG !u! tag:unity3d.com,2011:
--- !u!114 &11400000
MonoBehaviour:
  m_ObjectHideFlags: 0
  m_CorrespondingSourceObject: {fileID: 0}
  m_PrefabInternal: {fileID: 0}
  m_GameObject: {fileID: 0}
  m_Enabled: 1
  m_EditorHideFlags: 0
  m_Script: {fileID: 11500000, guid: 66d7288afe659f74db82530a26f80680, type: 3}
  m_Name: Moon Hostel
  m_EditorClassIdentifier: 
  id: 12
  establishmentName: Moon Hostel
  stars: 2
  hasPlaceTypeSpecification: 1
  description: "Hostel Moon jest po\u0142o\u017Cony w samym sercu Wroc\u0142awia,
    w odleg\u0142o\u015Bci 200 metr\xF3w od Rynku G\u0142\xF3wnego. Oferuje on niedrogie
    zakwaterowanie w prosto urz\u0105dzonych wn\u0119trzach. Na miejscu dost\u0119pny
    jest wsp\xF3lny salon, gdzie mo\u017Cna zrelaksowa\u0107 si\u0119 po aktywnie
    sp\u0119dzonym dniu."
  address:
    country: Poland
    city: "Wroc\u0142aw"
    street: Krupnicza
    number: 6
    hasPremiseNumber: 1
    premiseNumber: 8
  priceRange: 2
  latitude: 51.097015380859375
  longitude: 17.022947311401367
  websiteLink: moonhostel.pl/pl/wroclaw-2/
  phoneNumber: 508 777 200
  sprite: {fileID: 21300000, guid: 0365cba776897974dbef58508096068a, type: 3}
  workingHours: []
  placeTypeSpecification: 1
